array size, create broadcast var time, parallel op time, total time, sum value
1000,134,2281,2415,499500
1000,33,418,451,499500
1000,14,72,86,499500
1000,8,92,100,499500
1000,9,54,63,499500
1000,7,48,55,499500
1000,12,50,62,499500
1000,9,42,51,499500
1000,8,39,47,499500
1000,6,37,43,499500
10000,15,47,62,5449500
10000,16,43,59,5449500
10000,16,45,61,5449500
10000,35,42,77,5449500
10000,7,153,160,5449500
10000,8,34,42,5449500
10000,7,30,37,5449500
10000,6,29,35,5449500
10000,8,30,38,5449500
10000,7,29,36,5449500
100000,45,72,117,54949500
100000,61,77,138,54949500
100000,61,76,137,54949500
100000,61,76,137,54949500
100000,51,76,127,54949500
100000,50,78,128,54949500
100000,62,88,150,54949500
100000,84,81,165,54949500
100000,64,84,148,54949500
100000,46,127,173,54949500
1000000,531,1399,1930,549949500
1000000,617,629,1246,549949500
1000000,477,843,1320,549949500
1000000,496,1440,1936,549949500
1000000,537,869,1406,549949500
1000000,456,578,1034,549949500
1000000,459,398,857,549949500
1000000,505,435,940,549949500
1000000,471,631,1102,549949500
1000000,485,591,1076,549949500
10000000,15047,7835,22882,5499949500
10000000,5705,12334,18039,5499949500
10000000,6008,12192,18200,5499949500
10000000,5723,9481,15204,5499949500
10000000,5827,10350,16177,5499949500
10000000,5883,4506,10389,5499949500
10000000,5586,5053,10639,5499949500
10000000,5711,11467,17178,5499949500
10000000,6268,7893,14161,5499949500
10000000,5570,5463,11033,5499949500
100000000,200074,218942,419016,54999949500
100000000,189113,202414,391527,54999949500
100000000,131457,251476,382933,54999949500
100000000,79130,363430,442560,54999949500
100000000,80068,340113,420181,54999949500
100000000,81286,351787,433073,54999949500
100000000,75127,279135,354262,54999949500
100000000,77550,194183,271733,54999949500
100000000,75191,378872,454063,54999949500
100000000,73278,319879,393157,54999949500
