array size, create broadcast var time, parallel op time, total time, sum value
1000,111,2297,2408,2908800
1000,59,462,521,2908800
1000,12,106,118,2908800
1000,57,132,189,2908800
1000,8,95,103,2908800
1000,7,83,90,2908800
1000,5,67,72,2908800
1000,5,73,78,2908800
1000,5,56,61,2908800
1000,6,81,87,2908800
10000,18,144,162,2908800
10000,8,61,69,2908800
10000,7,50,57,2908800
10000,8,50,58,2908800
10000,9,50,59,2908800
10000,8,43,51,2908800
10000,8,45,53,2908800
10000,8,43,51,2908800
10000,8,45,53,2908800
10000,9,55,64,2908800
100000,55,182,237,2908800
100000,76,131,207,2908800
100000,73,188,261,2908800
100000,72,126,198,2908800
100000,66,104,170,2908800
100000,97,113,210,2908800
100000,52,134,186,2908800
100000,80,165,245,2908800
100000,78,166,244,2908800
100000,80,125,205,2908800
1000000,640,1439,2079,2908800
1000000,574,2360,2934,2908800
1000000,508,1340,1848,2908800
1000000,508,1352,1860,2908800
1000000,518,747,1265,2908800
1000000,515,1341,1856,2908800
1000000,560,696,1256,2908800
1000000,521,1357,1878,2908800
1000000,429,1374,1803,2908800
1000000,575,668,1243,2908800
10000000,16255,28583,44838,2908800
10000000,6190,28201,34391,2908800
10000000,6609,22380,28989,2908800
10000000,5729,25286,31015,2908800
10000000,7272,33315,40587,2908800
10000000,5581,14366,19947,2908800
10000000,5902,15361,21263,2908800
10000000,6223,13928,20151,2908800
10000000,5949,9268,15217,2908800
10000000,7426,14953,22379,2908800
100000000,270352,592593,862945,2908800
100000000,82682,670075,752757,2908800
100000000,79236,677885,757121,2908800
100000000,76416,743473,819889,2908800
100000000,143965,742497,886462,2908800
100000000,91032,595068,686100,2908800
100000000,139431,980497,1119928,2908800
